vacancy_id,vacancy_json,prepared_description
3,"{'id': '3', 'premium': False, 'billing_type': {'id': 'standard', 'name': 'Стандарт'}, 'relations': [], 'name': 'EVENT MANAGER', 'insider_interview': None, 'response_letter_required': False, 'area': {'id': '1', 'name': 'Москва', 'url': 'https://api.hh.ru/areas/1'}, 'salary': {'from': None, 'to': 2000, 'currency': 'USD', 'gross': None}, 'type': {'id': 'open', 'name': 'Открытая'}, 'address': None, 'allow_messages': True, 'site': {'id': 'hh', 'name': 'hh.ru'}, 'experience': {'id': 'between1And3', 'name': 'От 1 года до 3 лет'}, 'schedule': {'id': 'fullDay', 'name': 'Полный день'}, 'employment': {'id': 'full', 'name': 'Полная занятость'}, 'department': None, 'contacts': None, 'description': ' Срочно приглашается EVENT MANAGER в крупную западную компанию (косметическое направление)\r<br />\n\r<br />\n- от 27 лет\r<br />\n- английский язык - свободный\r<br />\n- опыт работы EVENT MANAGER от 2 лет\r<br />\n- опыт работы в иностранных компаниях\r<br />\n- креативность, неординарность творческих решений, активность\r<br />\n- рекомендации', 'branded_description': None, 'vacancy_constructor_template': None, 'key_skills': [], 'accept_handicapped': False, 'accept_kids': False, 'archived': True, 'response_url': None, 'specializations': [{'id': '3.148', 'name': 'Менеджер по работе с клиентами', 'profarea_id': '3', 'profarea_name': 'Маркетинг, реклама, PR'}, {'id': '3.230', 'name': 'Продвижение, Специальные мероприятия', 'profarea_id': '3', 'profarea_name': 'Маркетинг, реклама, PR'}, {'id': '3.8', 'name': 'PR, Маркетинговые коммуникации', 'profarea_id': '3', 'profarea_name': 'Маркетинг, реклама, PR'}, {'id': '3.328', 'name': 'Управление проектами', 'profarea_id': '3', 'profarea_name': 'Маркетинг, реклама, PR'}], 'professional_roles': [], 'code': None, 'hidden': False, 'quick_responses_allowed': False, 'driver_license_types': [], 'accept_incomplete_resumes': False, 'employer': {'id': '333', 'name': 'CONSORT Group/КОНСОРТ', 'url': 'https://api.hh.ru/employers/333', 'alternate_url': 'https://hh.ru/employer/333', 'logo_urls': {'90': 'https://hhcdn.ru/employer-logo/308367.png', '240': 'https://hhcdn.ru/employer-logo/381224.png', 'original': 'https://hhcdn.ru/employer-logo-original/233557.gif'}, 'vacancies_url': 'https://api.hh.ru/vacancies?employer_id=333', 'trusted': True}, 'published_at': '2004-01-30T15:05:11+0300', 'created_at': '2004-01-30T15:05:11+0300', 'negotiations_url': None, 'suitable_resumes_url': None, 'apply_alternate_url': 'https://hh.ru/applicant/vacancy_response?vacancyId=3', 'has_test': False, 'test': None, 'alternate_url': 'https://hh.ru/vacancy/3', 'working_days': [], 'working_time_intervals': [], 'working_time_modes': [], 'accept_temporary': False}","[['срочно', 'приглашаться', 'EVENT', 'MANAGER', 'крупный', 'западный', 'компания', 'косметический', 'направление', ') - ', '27', 'год', 'английский', 'язык', 'свободный', 'опыт', 'работа', 'EVENT', 'MANAGER', '2', 'год', 'опыт', 'работа', 'иностранный', 'компания', 'креативность', 'неординарность', 'творческий', 'решение', 'активность', 'рекомендация']]"
5,"{'id': '5', 'premium': False, 'billing_type': {'id': 'standard', 'name': 'Стандарт'}, 'relations': [], 'name': 'Курьер', 'insider_interview': None, 'response_letter_required': False, 'area': {'id': '1', 'name': 'Москва', 'url': 'https://api.hh.ru/areas/1'}, 'salary': {'from': None, 'to': 200, 'currency': 'USD', 'gross': None}, 'type': {'id': 'open', 'name': 'Открытая'}, 'address': None, 'allow_messages': True, 'site': {'id': 'hh', 'name': 'hh.ru'}, 'experience': {'id': 'noExperience', 'name': 'Нет опыта'}, 'schedule': {'id': 'fullDay', 'name': 'Полный день'}, 'employment': {'id': 'full', 'name': 'Полная занятость'}, 'department': None, 'contacts': None, 'description': 'Одна из ведущих коммуникационных групп на российском рынке - &quot;Кузьменков и Партнеры&quot; приглашает на работу курьеров-экспедиторов.\r<br />\nОфис компании расположен в центре Москвы (м. Кузнецкий мост), рабочий день с 10:00 до 19:00 с часовым перерывом на обед', 'branded_description': None, 'vacancy_constructor_template': None, 'key_skills': [], 'accept_handicapped': False, 'accept_kids': False, 'archived': True, 'response_url': None, 'specializations': [{'id': '4.127', 'name': 'Курьер', 'profarea_id': '4', 'profarea_name': 'Административный персонал'}], 'professional_roles': [], 'code': None, 'hidden': False, 'quick_responses_allowed': False, 'driver_license_types': [], 'accept_incomplete_resumes': True, 'employer': {'id': '2363', 'name': 'Кузьменков и Партнеры, коммуникационная группа', 'url': 'https://api.hh.ru/employers/2363', 'alternate_url': 'https://hh.ru/employer/2363', 'logo_urls': {'original': 'https://hhcdn.ru/employer-logo-original/232424.jpg', '90': 'https://hhcdn.ru/employer-logo/309415.jpeg', '240': 'https://hhcdn.ru/employer-logo/382272.jpeg'}, 'vacancies_url': 'https://api.hh.ru/vacancies?employer_id=2363', 'trusted': True}, 'published_at': '2004-02-06T13:40:45+0300', 'created_at': '2004-02-06T13:40:45+0300', 'negotiations_url': None, 'suitable_resumes_url': None, 'apply_alternate_url': 'https://hh.ru/applicant/vacancy_response?vacancyId=5', 'has_test': False, 'test': None, 'alternate_url': 'https://hh.ru/vacancy/5', 'working_days': [], 'working_time_intervals': [], 'working_time_modes': [], 'accept_temporary': False}","[['ведущий', 'коммуникационный', 'группа', 'российский', 'рынок', ' - &', 'quot', 'кузьменков', 'партнер', 'quot', 'приглашать', 'работа', 'курьер', 'экспедитор'], ['офис', 'компания', 'располагать', 'центр', 'москва', 'м', 'кузнецкий', 'мост', '), ', 'рабочий', 'день', '10', '00', '19', '00', 'часовой', 'перерыв', 'обед']]"
6,"{'id': '6', 'premium': False, 'billing_type': {'id': 'standard', 'name': 'Стандарт'}, 'relations': [], 'name': 'Менеджер отдела развития и маркетинга', 'insider_interview': None, 'response_letter_required': True, 'area': {'id': '3', 'name': 'Екатеринбург', 'url': 'https://api.hh.ru/areas/3'}, 'salary': None, 'type': {'id': 'open', 'name': 'Открытая'}, 'address': None, 'allow_messages': True, 'site': {'id': 'hh', 'name': 'hh.ru'}, 'experience': {'id': 'between1And3', 'name': 'От 1 года до 3 лет'}, 'schedule': {'id': 'fullDay', 'name': 'Полный день'}, 'employment': {'id': 'full', 'name': 'Полная занятость'}, 'department': None, 'contacts': None, 'description': 'Компания &quot;Бест&quot; была основана в 1992 году. На начальном этапе развития компании &quot;Бест&quot; основным видом деятельности было строительство. На сегодняшний день строительным подразделением компании в Екатеринбурге и области построены многоэтажные здания, поселки коттеджей, цеха и административные здания ряда предприятий. Силами наших строителей реконструированы многие магазины и офисы Екатеринбурга. Торговое направление деятельности компании &quot;Бест&quot; очень быстро набрало обороты и достигло высокого уровня. Компания &quot;Бест&quot; является лидером по продаже растительного масла, молокопродуктов, соков и газированных напитков в России. Успешно работают филиалы компании в Нижнем Новгороде, Нижнем Тагиле, Тюмени, Сургуте, Челябинске, Уфе, Стерлитамаке и Кургане. Для улучшения транспортной схемы на города средней полосы России и региональных продаж существует офис в Москве. \r<br />\n     В собственности компании имеются несколько продовольственных баз в Екатеринбурге и Нижнем Тагиле. Кроме оптового направления, в состав компании входит сеть супермаркетов &quot;Бестмаркет&quot; в г. Екатеринбурге и г. Верхняя Пышма (пригород Екатеринбурга), а также Cash &amp; Carry в г. Нижний Тагил. \r<br />\nВ процессе формирования своего ассортимента &quot;Бест&quot; руководствуется принципом: В Россию - самые качественные продукты. На складах компании постоянно присутствуют: масло &quot;Олейна&quot; произведенное одноименным концерном; соков компаний &quot;Вимм-Билль-Данн&quot; и &quot;Мултон&quot;. &quot;Бест&quot; является крупнейшим дистрибьютором этих компаний. \r<br />\n     Для снижения транспортных расходов наша фирма содержит обширный парк автомашин марок - СуперМаз, Газ, ЗИЛ, Газель - более 50. Для удобства обслуживания клиентов, торговые базы в Екатеринбурге и филиалах располагаются на въездах в город и основных транспортных развязках. \r<br />\nПрямые поставки, большие объемы, сведенные к минимуму транспортные расходы, работа с магазинами без посредников - все это позволяет поддерживать в регионе разумные цены на данные продукты, что делает их доступными каждому потребителю. Компания &quot;Бест&quot; постоянно расширяет и обновляет ассортимент завозимой продукции. Так, в 2002 году компания начала сотрудничать с молочным направлением компании Вимм-Билль-Данн. Одним из немаловажных направлений торговой деятельности мы считаем обеспечение сырьем российских производителей. Так, например, осуществляется поставка растительного масла в бочках для производителей кондитерских изделий и парфюмерно-косметической продукции. \r<br />\nПроизводственная деятельность компании &quot;Бест&quot; началась в 1997 году, когда произвел свою первую партию продукции завод безалкогольных газированных напитков &quot;Бест - Ботлинг&quot;. На сегодняшний день это одно из наиболее важных и успешных направлений общего бизнеса. В конце 1997 года мощностей итальянских линий &quot;Sipa&quot; и &quot;Ave&quot;, хватало для удовлетворения потребности в минеральной и газированной воде значительной части Свердловской области. Однако со временем, благодаря грамотной политике продаж, отличному качеству продукта и рекламной поддержке, объемы продаж существенно возросли, и производственных мощностей стало не хватать. В 2001 году была произведена модернизация завода наиболее современным оборудованием компаний &quot;KHS&quot; (Германия) и &quot;Sidel&quot; (Франция), что сделало завод &quot;Бест-Ботлинг&quot; крупнейшим производителем безалкогольной газированной продукции в России. Сырье для фруктовых напитков и колы закупаются у американского концерна &quot;ROYAL CROWN COLA Co&quot;, что является залогом высочайшего качества производимых напитков. Собственное производство, современная технология, полная автоматизация на всех стадиях технологического процесса обеспечивают доступные цены на продукцию высочайшего качества. \r<br />\n     Честность и точность в работе с партнерами и клиентами, постоянный и высоколиквидный ассортимент, а также гибкая система скидок и услуг - вот основные принципы работы нашей компании.\r<br />\n\r<br />\n\r<br />\n\r<br />\n\r<br />\n\r<br />\n\r<br />\n\r<br />\n     ', 'branded_description': None, 'vacancy_constructor_template': None, 'key_skills': [], 'accept_handicapped': False, 'accept_kids': False, 'archived': True, 'response_url': None, 'specializations': [{'id': '3.318', 'name': 'Управление маркетингом', 'profarea_id': '3', 'profarea_name': 'Маркетинг, реклама, PR'}], 'professional_roles': [], 'code': None, 'hidden': False, 'quick_responses_allowed': False, 'driver_license_types': [], 'accept_incomplete_resumes': False, 'employer': {'id': '3155', 'name': 'Бест, Торгово-производственная компания, Екатеринбург', 'url': 'https://api.hh.ru/employers/3155', 'alternate_url': 'https://hh.ru/employer/3155', 'logo_urls': None, 'vacancies_url': 'https://api.hh.ru/vacancies?employer_id=3155', 'trusted': True}, 'published_at': '2004-03-31T13:09:08+0400', 'created_at': '2004-03-31T13:09:08+0400', 'negotiations_url': None, 'suitable_resumes_url': None, 'apply_alternate_url': 'https://hh.ru/applicant/vacancy_response?vacancyId=6', 'has_test': False, 'test': None, 'alternate_url': 'https://hh.ru/vacancy/6', 'working_days': [], 'working_time_intervals': [], 'working_time_modes': [], 'accept_temporary': False}","[['компания', 'quot', 'бест', 'quot', 'основывать', '1992', 'год'], ['начальный', 'этап', 'развитие', 'компания', 'quot', 'бест', 'quot', 'основной', 'вид', 'деятельность', 'строительство'], ['сегодняшний', 'день', 'строительный', 'подразделение', 'компания', 'екатеринбург', 'область', 'построить', 'многоэтажный', 'здание', 'поселок', 'коттедж', 'цех', 'административный', 'здание', 'ряд', 'предприятие'], ['сила', 'наш', 'строитель', 'реконструировать', 'многий', 'магазин', 'офис', 'екатеринбург'], ['торговый', 'направление', 'деятельность', 'компания', 'quot', 'бест', 'quot', 'очень', 'быстро', 'набирать', 'оборот', 'достигать', 'высокий', 'уровень'], ['компания', 'quot', 'бест', 'quot', 'являться', 'лидер', 'продажа', 'растительный', 'масло', 'молокопродукты', 'сок', 'газировать', 'напиток', 'россия'], ['успешно', 'работать', 'филиал', 'компания', 'нижний', 'новгород', 'нижний', 'тагил', 'тюмень', 'сургут', 'челябинск', 'уфа', 'стерлитамак', 'курган'], ['улучшение', 'транспортный', 'схема', 'город', 'средний', 'полоса', 'россия', 'региональный', 'продажа', 'существовать', 'офис', 'москва'], ['собственность', 'компания', 'иметься', 'несколько', 'продовольственный', 'база', 'екатеринбург', 'нижний', 'тагил'], ['кроме', 'оптовый', 'направление', 'состав', 'компания', 'входить', 'сеть', 'супермаркет', 'quot', 'бестмаркет', 'quot', 'г', 'екатеринбург', 'г', 'верхний', 'пышма', 'пригород', 'екатеринбург', '), ', 'также', 'Cash', 'amp', 'Carry', 'г', 'нижний', 'тагил'], ['процесс', 'формирование', 'свой', 'ассортимент', 'quot', 'бест', 'quot', 'руководствоваться', 'принцип', 'россия', 'самый', 'качественный', 'продукт'], ['склад', 'компания', 'постоянно', 'присутствовать', 'масло', 'quot', 'олейный', 'quot', 'производить', 'одноименный', 'концерн', 'сок', 'компания', 'quot', 'вимм-билль-данн', 'quot', 'quot', 'мултон', 'quot'], ['quot', 'бест', 'quot', 'являться', 'крупный', 'дистрибьютор', 'компания'], ['снижение', 'транспортный', 'расход', 'наш', 'фирма', 'содержать', 'обширный', 'парк', 'автомашина', 'марка', 'супермаз', 'газ', 'зил', 'газель', '50'], ['удобство', 'обслуживание', 'клиент', 'торговый', 'база', 'екатеринбург', 'филиал', 'располагаться', 'въезд', 'город', 'основной', 'транспортный', 'развязка'], ['прямой', 'поставка', 'большой', 'объем', 'сводить', 'минимум', 'транспортный', 'расход', 'работа', 'магазин', 'посредник', 'весь', 'это', 'позволять', 'поддерживать', 'регион', 'разумный', 'цена', 'данный', 'продукт', 'делать', 'доступный', 'каждый', 'потребитель'], ['компания', 'quot', 'бест', 'quot', 'постоянно', 'расширять', 'обновлять', 'ассортимент', 'завозить', 'продукция'], ['2002', 'год', 'компания', 'начинать', 'сотрудничать', 'молочный', 'направление', 'компания', 'вимм-билль-данн'], ['немаловажный', 'направление', 'торговый', 'деятельность', 'считать', 'обеспечение', 'сырье', 'российский', 'производитель'], ['например', 'осуществляться', 'поставка', 'растительный', 'масло', 'бочка', 'производитель', 'кондитерский', 'изделие', 'парфюмерный', 'косметический', 'продукция'], ['производственный', 'деятельность', 'компания', 'quot', 'бест', 'quot', 'начинаться', '1997', 'год', 'производить', 'свой', 'первый', 'партия', 'продукция', 'завод', 'безалкогольный', 'газированный', 'напиток', 'quot', 'бест', 'ботлинг', 'quot'], ['сегодняшний', 'день', 'это', 'наиболее', 'важный', 'успешный', 'направление', 'общий', 'бизнес'], ['конец', '1997', 'год', 'мощность', 'итальянский', 'линия', 'quot', 'Sipa', 'quot', 'quot', 'Ave', 'quot', ';, ', 'хватать', 'удовлетворение', 'потребность', 'минеральный', 'газировать', 'вода', 'значительный', 'часть', 'свердловский', 'область'], ['однако', 'время', 'благодаря', 'грамотный', 'политика', 'продажа', 'отличный', 'качество', 'продукт', 'рекламный', 'поддержка', 'объем', 'продажа', 'существенно', 'возрастать', 'производственный', 'мощность', 'становиться', 'хватать'], ['2001', 'год', 'производить', 'модернизация', 'завод', 'наиболее', 'современный', 'оборудование', 'компания', 'quot', 'KHS', 'quot', '; (', 'германия', 'quot', 'Sidel', 'quot', '; (', 'франция', '), ', 'сделать', 'завод', 'quot', 'бест', 'ботлинг', 'quot', 'крупный', 'производитель', 'безалкогольный', 'газированный', 'продукция', 'россия'], ['сырье', 'фруктовый', 'напиток', 'кол', 'закупаться', 'американский', 'концерн', 'quot', 'ROYAL', 'CROWN', 'COLA', 'Co', 'quot', ';, ', 'являться', 'залог', 'высокий', 'качество', 'производить', 'напиток'], ['собственный', 'производство', 'современный', 'технология', 'полный', 'автоматизация', 'весь', 'стадия', 'технологический', 'процесс', 'обеспечивать', 'доступный', 'цена', 'продукция', 'высокий', 'качество'], ['честность', 'точность', 'работа', 'партнер', 'клиент', 'постоянный', 'высоколиквидный', 'ассортимент', 'также', 'гибкий', 'система', 'скидка', 'услуга', 'основной', 'принцип', 'работа', 'наш', 'компания']]"
